<?xml version="1.0" encoding="utf-8"?>
<!-- Generator: Adobe Illustrator 19.2.1, SVG Export Plug-In . SVG Version: 6.00 Build 0)  -->
<svg version="1.1" id="_x3F__x3F__x3F__x3F__1" xmlns="http://www.w3.org/2000/svg" xmlns:xlink="http://www.w3.org/1999/xlink"
	 x="0px" y="0px" viewBox="0 0 238.8 51.4" style="enable-background:new 0 0 238.8 51.4;" xml:space="preserve">
<style type="text/css">
	.st0{fill-rule:evenodd;clip-rule:evenodd;fill:#E30613;}
	.st1{fill-rule:evenodd;clip-rule:evenodd;fill:#FFFFFF;}
	.st2{fill-rule:evenodd;clip-rule:evenodd;fill:#FFFFFF;stroke:#E30613;stroke-width:0.216;stroke-miterlimit:22.9256;}
	.st3{fill-rule:evenodd;clip-rule:evenodd;fill:#009640;}
</style>
<g>
	<path class="st0" d="M82.5,27.7c0,0.9-0.1,1.8-0.4,2.6c-0.3,0.8-0.7,1.5-1.3,2.1c-0.5,0.6-1.2,1.1-2,1.4c-0.8,0.4-1.8,0.5-2.8,0.5
		H65.4V11.9h10.2c1.1,0,2.1,0.2,2.9,0.5c0.8,0.3,1.5,0.8,2,1.3c0.5,0.6,0.9,1.2,1.2,2c0.3,0.7,0.4,1.5,0.4,2.3
		c0,0.8-0.2,1.7-0.7,2.6c-0.4,0.9-1.2,1.5-2.1,2c0.5,0.3,1,0.6,1.4,1c0.4,0.4,0.7,0.8,1,1.3c0.3,0.5,0.5,0.9,0.6,1.4
		C82.5,26.8,82.5,27.2,82.5,27.7L82.5,27.7z M77.5,18.4c0-0.8-0.2-1.5-0.7-1.9c-0.5-0.4-1.3-0.7-2.3-0.7h-4.6v4.9h4.6
		c0.9,0,1.7-0.2,2.2-0.7C77.3,19.7,77.5,19.1,77.5,18.4L77.5,18.4z M77.8,27.5c0-0.9-0.3-1.6-0.8-2.1c-0.5-0.5-1.3-0.8-2.3-0.8h-4.8
		v5.7h4.8c1,0,1.8-0.3,2.3-0.8C77.5,29.1,77.8,28.4,77.8,27.5L77.8,27.5z M103.2,27.2c0,1.2-0.2,2.3-0.7,3.2
		c-0.5,0.9-1.1,1.7-1.9,2.3c-0.8,0.6-1.7,1.1-2.8,1.4c-1.1,0.3-2.1,0.5-3.3,0.5c-1.1,0-2.2-0.2-3.3-0.5c-1-0.3-2-0.8-2.8-1.4
		c-0.8-0.6-1.4-1.4-1.9-2.3c-0.5-0.9-0.7-2-0.7-3.2V11.9h4.5v14.6c0,0.7,0.1,1.4,0.4,1.9c0.2,0.5,0.6,0.9,0.9,1.3
		c0.4,0.3,0.8,0.6,1.3,0.7c0.5,0.2,1,0.2,1.5,0.2c0.5,0,1-0.1,1.5-0.2c0.5-0.2,0.9-0.4,1.3-0.7c0.4-0.3,0.7-0.8,0.9-1.3
		c0.2-0.5,0.4-1.1,0.4-1.9V11.9h4.5V27.2L103.2,27.2z M111.7,21.5c0.6-0.7,1.3-1.4,1.9-2.2c0.6-0.7,1.2-1.5,1.8-2.2l4.4-5.4h5.3
		l-7.5,9.1l8.1,13.4h-5.3l-5.7-9.9c-0.5,0.6-1.1,1.2-1.6,1.8c-0.5,0.6-1,1.2-1.5,1.8v6.3h-4.5V11.9h4.5v9.7H111.7L111.7,21.5z
		 M135.9,27.7l2.3-8l2.4-7.9h4.7l-7.2,22.5h-4.7l-7.3-22.5h4.8l2.5,8.1l2.3,7.8H135.9L135.9,27.7z M159.1,29.7l1.4,4.6h4.9
		l-7.9-22.5h-4.6l-8,22.5h4.8l1.5-4.6H159.1L159.1,29.7z M152.4,26l0.9-3l1.7-5.8h0.1l1.8,5.9l0.9,2.9H152.4z"/>
	<path class="st1" d="M183.3,18.6c0,0.8-0.1,1.6-0.4,2.4c-0.3,0.8-0.7,1.5-1.3,2.2c-0.5,0.6-1.2,1.2-2,1.6c-0.8,0.4-1.7,0.6-2.7,0.6
		h-6.4v9h-3V11.9h9.4c1.1,0,2,0.2,2.8,0.6c0.8,0.4,1.5,0.9,2,1.6c0.5,0.6,0.9,1.4,1.2,2.2C183.1,17,183.3,17.8,183.3,18.6
		L183.3,18.6z M180.3,18.6c0-1.2-0.4-2.2-1.1-2.9c-0.8-0.7-1.7-1.1-2.9-1.1h-5.8v7.9h5.8c1.2,0,2.2-0.3,2.9-1
		C179.9,20.8,180.3,19.8,180.3,18.6L180.3,18.6z M186.1,34.3V11.9h3v19.8h12.1v2.7H186.1L186.1,34.3z M220,27.2
		c0,1.2-0.2,2.2-0.7,3.1c-0.4,0.9-1.1,1.7-1.8,2.3c-0.8,0.6-1.7,1.1-2.7,1.4c-1,0.3-2.1,0.5-3.2,0.5c-1.1,0-2.2-0.2-3.2-0.5
		c-1-0.3-1.9-0.8-2.7-1.4c-0.8-0.6-1.4-1.4-1.8-2.3c-0.4-0.9-0.7-1.9-0.7-3.1V11.9h3.1v14.8c0,0.9,0.1,1.7,0.4,2.3
		c0.3,0.7,0.7,1.2,1.1,1.6c0.5,0.4,1,0.7,1.7,0.9c0.6,0.2,1.3,0.3,2,0.3c0.7,0,1.3-0.1,2-0.3c0.6-0.2,1.2-0.5,1.7-0.9
		c0.5-0.4,0.9-0.9,1.2-1.6c0.3-0.7,0.4-1.4,0.4-2.3V11.9h3.1V27.2L220,27.2z M238.8,28.1c0,1-0.2,1.9-0.6,2.7
		c-0.4,0.8-0.9,1.5-1.6,2c-0.7,0.6-1.6,1-2.5,1.3c-1,0.3-2.1,0.4-3.3,0.4c-1.6,0-3-0.2-4.4-0.7c-1.4-0.4-2.7-1.1-4-2.1l1.7-2.2
		c1,0.7,2.1,1.2,3.2,1.6c1.1,0.4,2.3,0.6,3.5,0.6c1.5,0,2.7-0.3,3.6-1c0.9-0.7,1.3-1.6,1.3-2.7c0-0.7-0.2-1.3-0.5-1.8
		c-0.3-0.5-0.8-0.8-1.3-1.1c-0.5-0.3-1.1-0.5-1.8-0.7c-0.6-0.2-1.3-0.3-1.9-0.4c-0.9-0.2-1.8-0.4-2.6-0.7c-0.8-0.3-1.6-0.6-2.2-1.1
		c-0.6-0.5-1.2-1.1-1.5-1.8c-0.4-0.7-0.6-1.6-0.6-2.6c0-0.9,0.2-1.8,0.5-2.6c0.3-0.8,0.8-1.5,1.5-2c0.6-0.6,1.4-1,2.3-1.3
		c0.9-0.3,1.9-0.5,3.1-0.5c1.3,0,2.6,0.1,3.8,0.4c1.3,0.2,2.4,0.7,3.6,1.4l-1.4,2.5c-1-0.6-2-1-3-1.2c-1-0.2-2.1-0.4-3-0.4
		c-0.6,0-1.2,0.1-1.7,0.2c-0.5,0.2-1,0.4-1.4,0.7c-0.4,0.3-0.7,0.7-0.9,1.2c-0.2,0.5-0.3,1-0.3,1.7c0,0.6,0.2,1.1,0.5,1.5
		c0.3,0.4,0.7,0.7,1.3,1c0.5,0.3,1.1,0.5,1.6,0.6c0.6,0.2,1.2,0.3,1.7,0.4c0.9,0.2,1.9,0.5,2.8,0.7c0.9,0.3,1.7,0.6,2.4,1.1
		c0.7,0.5,1.3,1.1,1.7,1.9C238.6,25.9,238.8,26.9,238.8,28.1z"/>
	<path class="st1" d="M65.4,42.5h1.1c0.6,0,1,0.1,1.3,0.2c0.3,0.1,0.5,0.3,0.6,0.5c0.2,0.2,0.2,0.5,0.2,0.9c0,0.4-0.1,0.7-0.3,1
		c-0.2,0.3-0.5,0.4-0.8,0.5c-0.2,0.1-0.6,0.1-1.1,0.1V48h-1V42.5L65.4,42.5z M66.4,44.6h0.3c0.3,0,0.5,0,0.6-0.1
		c0.1,0,0.2-0.1,0.2-0.2c0.1-0.1,0.1-0.2,0.1-0.3c0-0.2-0.1-0.4-0.3-0.5c-0.1-0.1-0.3-0.1-0.7-0.1h-0.3V44.6L66.4,44.6z M69.7,42.5
		h3v1h-2v1h2v1h-2V47h2v1h-3V42.5L69.7,42.5z M73.7,42.5h1.1v1.9l1.5-1.9h1.3l-1.9,2.5l2.1,3.1h-1.3l-1.7-2.5V48h-1.1V42.5
		L73.7,42.5z M82.1,48L80.6,44L79,48h-1.1l2.1-5.5h1.1l2.1,5.5H82.1L82.1,48z M85.5,42.5h1.1l2.1,5.5h-1.1l-0.4-1.1h-2.3L84.5,48
		h-1.1L85.5,42.5L85.5,42.5z M86.1,43.9l-0.8,1.9h1.5L86.1,43.9L86.1,43.9z M90.1,42.5h1l1.3,3.9l1.3-3.9h1l0.9,5.5h-1L94,44.5
		L92.9,48h-0.9l-1.2-3.5L90.2,48h-1L90.1,42.5L90.1,42.5z M96.5,42.5h1.1v2.1h1.9v-2.1h1.1V48h-1.1v-2.4h-1.9V48h-1.1V42.5
		L96.5,42.5z M104.4,42.3c0.8,0,1.5,0.3,2,0.9c0.6,0.6,0.8,1.3,0.8,2.1c0,0.8-0.3,1.5-0.8,2.1c-0.6,0.6-1.2,0.8-2,0.8
		c-0.8,0-1.5-0.3-2.1-0.9c-0.6-0.6-0.8-1.3-0.8-2c0-0.5,0.1-1,0.4-1.5c0.3-0.4,0.6-0.8,1.1-1.1C103.4,42.5,103.8,42.3,104.4,42.3
		L104.4,42.3z M104.3,43.4c-0.5,0-0.9,0.2-1.3,0.5c-0.3,0.4-0.5,0.8-0.5,1.4c0,0.6,0.2,1.1,0.7,1.5c0.3,0.3,0.7,0.4,1.2,0.4
		c0.5,0,0.9-0.2,1.3-0.5c0.4-0.4,0.5-0.8,0.5-1.3c0-0.5-0.2-1-0.5-1.3C105.3,43.6,104.8,43.4,104.3,43.4L104.3,43.4z M108.3,45.5
		h1.9v1h-1.9V45.5L108.3,45.5z M111.5,42.5h4V48h-1.1v-4.6h-1.9V48h-1.1V42.5L111.5,42.5z M116.7,42.5h1.1c0.6,0,1,0.1,1.3,0.2
		c0.3,0.1,0.5,0.3,0.6,0.5c0.2,0.2,0.2,0.5,0.2,0.9c0,0.4-0.1,0.7-0.3,1c-0.2,0.3-0.5,0.4-0.8,0.5c-0.2,0.1-0.6,0.1-1.1,0.1V48h-1
		V42.5L116.7,42.5z M117.7,44.6h0.3c0.3,0,0.4,0,0.6-0.1c0.1,0,0.2-0.1,0.2-0.2c0.1-0.1,0.1-0.2,0.1-0.3c0-0.2-0.1-0.4-0.3-0.5
		c-0.1-0.1-0.3-0.1-0.7-0.1h-0.3V44.6L117.7,44.6z M123.6,42.3c0.8,0,1.5,0.3,2,0.9c0.6,0.6,0.8,1.3,0.8,2.1c0,0.8-0.3,1.5-0.8,2.1
		c-0.6,0.6-1.2,0.8-2,0.8c-0.8,0-1.5-0.3-2.1-0.9c-0.6-0.6-0.8-1.3-0.8-2c0-0.5,0.1-1,0.4-1.5c0.3-0.4,0.6-0.8,1.1-1.1
		C122.6,42.5,123.1,42.3,123.6,42.3L123.6,42.3z M123.6,43.4c-0.5,0-0.9,0.2-1.3,0.5c-0.3,0.4-0.5,0.8-0.5,1.4
		c0,0.6,0.2,1.1,0.7,1.5c0.3,0.3,0.7,0.4,1.2,0.4c0.5,0,0.9-0.2,1.3-0.5c0.4-0.4,0.5-0.8,0.5-1.3c0-0.5-0.2-1-0.5-1.3
		C124.6,43.6,124.1,43.4,123.6,43.4L123.6,43.4z M131.5,42.5V48h-1v-3.5l-2.1,3.5h-0.9v-5.5h1v3.6l2.1-3.6H131.5L131.5,42.5z
		 M133.1,46.6c0.3,0.4,0.6,0.6,1,0.6c0.2,0,0.5-0.1,0.6-0.2c0.2-0.1,0.2-0.3,0.2-0.6c0-0.2-0.1-0.4-0.2-0.6
		c-0.2-0.2-0.5-0.2-0.9-0.2h-0.2v-0.9h0.2c0.3,0,0.5-0.1,0.6-0.2c0.1-0.1,0.2-0.3,0.2-0.5c0-0.2-0.1-0.4-0.2-0.5
		c-0.1-0.1-0.3-0.2-0.5-0.2c-0.2,0-0.5,0.1-0.7,0.3l-0.6-0.7c0.3-0.3,0.6-0.5,0.8-0.5c0.2-0.1,0.4-0.1,0.6-0.1
		c0.5,0,0.8,0.1,1.1,0.4c0.3,0.3,0.5,0.6,0.5,1.1c0,0.2,0,0.4-0.1,0.6c-0.1,0.2-0.3,0.4-0.6,0.6c0.7,0.3,1,0.8,1,1.5
		c0,0.5-0.2,0.9-0.5,1.2c-0.3,0.3-0.8,0.5-1.3,0.5c-0.3,0-0.6-0.1-0.9-0.2c-0.3-0.1-0.6-0.4-0.9-0.8L133.1,46.6L133.1,46.6z
		 M136.9,48v-5.5h0.9c0.5,0,0.9,0,1.1,0.1c0.3,0.1,0.6,0.3,0.8,0.5c0.2,0.2,0.3,0.5,0.3,0.8c0,0.2,0,0.4-0.1,0.6
		c-0.1,0.2-0.2,0.3-0.4,0.5c0.3,0.2,0.6,0.4,0.7,0.6c0.2,0.2,0.2,0.5,0.2,0.8c0,0.3-0.1,0.6-0.2,0.8c-0.2,0.3-0.4,0.4-0.6,0.6
		c-0.3,0.1-0.6,0.2-1.1,0.2H136.9L136.9,48z M138,43.5v1.2h0.2c0.3,0,0.5-0.1,0.6-0.2c0.1-0.1,0.2-0.3,0.2-0.4
		c0-0.2-0.1-0.3-0.2-0.4c-0.1-0.1-0.3-0.2-0.6-0.2H138L138,43.5z M138,45.6V47h0.3c0.4,0,0.7-0.1,0.9-0.2c0.2-0.1,0.2-0.3,0.2-0.5
		c0-0.2-0.1-0.4-0.3-0.6c-0.2-0.1-0.5-0.2-0.9-0.2H138L138,45.6z M144,42.3c0.8,0,1.5,0.3,2,0.9c0.6,0.6,0.8,1.3,0.8,2.1
		c0,0.8-0.3,1.5-0.8,2.1c-0.6,0.6-1.2,0.8-2,0.8c-0.8,0-1.5-0.3-2.1-0.9c-0.5-0.6-0.8-1.3-0.8-2c0-0.5,0.1-1,0.4-1.5
		c0.3-0.4,0.6-0.8,1.1-1.1C143,42.5,143.5,42.3,144,42.3L144,42.3z M144,43.4c-0.5,0-0.9,0.2-1.3,0.5c-0.3,0.4-0.5,0.8-0.5,1.4
		c0,0.6,0.2,1.1,0.7,1.5c0.3,0.3,0.7,0.4,1.2,0.4c0.5,0,0.9-0.2,1.3-0.5c0.4-0.4,0.5-0.8,0.5-1.3c0-0.5-0.2-1-0.5-1.3
		C144.9,43.6,144.5,43.4,144,43.4L144,43.4z M149.7,42.5h1.1l1.8,4.6h0.6v1.8h-1V48h-3.8v0.8h-1V47h0.6L149.7,42.5L149.7,42.5z
		 M150.2,43.9L149,47h2.4L150.2,43.9L150.2,43.9z M158.9,43.4l-0.7,0.7c-0.5-0.5-1.1-0.8-1.7-0.8c-0.5,0-1,0.2-1.3,0.5
		c-0.4,0.4-0.5,0.8-0.5,1.3c0,0.4,0.1,0.7,0.2,1c0.2,0.3,0.4,0.5,0.7,0.7c0.3,0.2,0.6,0.2,1,0.2c0.3,0,0.6-0.1,0.8-0.2
		c0.3-0.1,0.5-0.3,0.8-0.6l0.7,0.7c-0.4,0.4-0.8,0.7-1.2,0.8c-0.4,0.2-0.8,0.2-1.2,0.2c-0.9,0-1.6-0.3-2.1-0.8
		c-0.5-0.5-0.8-1.2-0.8-2.1c0-0.6,0.1-1,0.4-1.5c0.2-0.4,0.6-0.8,1.1-1c0.5-0.3,1-0.4,1.5-0.4c0.5,0,0.9,0.1,1.3,0.3
		C158.2,42.8,158.6,43.1,158.9,43.4L158.9,43.4z M159.3,42.5h3.1v1h-1V48h-1.1v-4.5h-1V42.5L159.3,42.5z M163.1,48v-5.5h0.9
		c0.5,0,0.9,0,1.1,0.1c0.3,0.1,0.6,0.3,0.8,0.5c0.2,0.2,0.3,0.5,0.3,0.8c0,0.2,0,0.4-0.1,0.6c-0.1,0.2-0.2,0.3-0.4,0.5
		c0.3,0.2,0.6,0.4,0.7,0.6c0.2,0.2,0.2,0.5,0.2,0.8c0,0.3-0.1,0.6-0.2,0.8c-0.2,0.3-0.4,0.4-0.6,0.6c-0.3,0.1-0.6,0.2-1.1,0.2H163.1
		L163.1,48z M164.1,43.5v1.2h0.2c0.3,0,0.5-0.1,0.6-0.2c0.1-0.1,0.2-0.3,0.2-0.4c0-0.2-0.1-0.3-0.2-0.4c-0.1-0.1-0.3-0.2-0.6-0.2
		H164.1L164.1,43.5z M164.1,45.6V47h0.3c0.4,0,0.7-0.1,0.9-0.2c0.2-0.1,0.2-0.3,0.2-0.5c0-0.2-0.1-0.4-0.3-0.6
		c-0.2-0.1-0.5-0.2-0.9-0.2H164.1L164.1,45.6z M167.6,42.5h3v1h-2v1h2v1h-2V47h2v1h-3V42.5L167.6,42.5z M171.6,42.5h1.1v2.1h1.9
		v-2.1h1.1V48h-1.1v-2.4h-1.9V48h-1.1V42.5L171.6,42.5z M176.8,42.5h1.1v2.1h1.9v-2.1h1.1V48h-1.1v-2.4h-1.9V48h-1.1V42.5
		L176.8,42.5z M186.3,42.5h1V48h-1V42.5L186.3,42.5z M182,48v-5.5h1v2.1h0.2c0.4,0,0.8,0.1,1.1,0.2c0.3,0.1,0.5,0.3,0.8,0.6
		c0.2,0.3,0.3,0.6,0.3,1c0,0.4-0.1,0.7-0.3,1c-0.2,0.3-0.4,0.5-0.6,0.6c-0.2,0.1-0.6,0.2-1,0.2H182L182,48z M183.1,45.5V47h0.3
		c0.4,0,0.7-0.1,0.9-0.2c0.1-0.1,0.2-0.3,0.2-0.6c0-0.5-0.4-0.8-1.1-0.8H183.1L183.1,45.5z M192.6,42.5V48h-1v-3.5l-2.1,3.5h-0.9
		v-5.5h1v3.6l2.1-3.6H192.6L192.6,42.5z M189.1,41h0.8c0.1,0.1,0.2,0.2,0.3,0.2c0.1,0.1,0.3,0.1,0.4,0.1c0.2,0,0.3,0,0.5-0.1
		c0.1,0,0.2-0.1,0.2-0.2h0.8c0,0.3-0.2,0.6-0.5,0.8c-0.3,0.2-0.6,0.3-1.1,0.3c-0.3,0-0.6,0-0.8-0.1c-0.2-0.1-0.4-0.2-0.5-0.4
		C189.2,41.4,189.1,41.2,189.1,41L189.1,41z M196,42.5h1.1v1.9l1.5-1.9h1.3l-1.9,2.5l2.1,3.1h-1.3l-1.7-2.5V48H196V42.5L196,42.5z
		 M203.4,42.3c0.8,0,1.5,0.3,2,0.9c0.6,0.6,0.8,1.3,0.8,2.1c0,0.8-0.3,1.5-0.8,2.1c-0.6,0.6-1.2,0.8-2,0.8c-0.8,0-1.5-0.3-2.1-0.9
		c-0.6-0.6-0.8-1.3-0.8-2c0-0.5,0.1-1,0.4-1.5c0.3-0.4,0.6-0.8,1.1-1.1C202.4,42.5,202.9,42.3,203.4,42.3L203.4,42.3z M203.4,43.4
		c-0.5,0-0.9,0.2-1.3,0.5c-0.3,0.4-0.5,0.8-0.5,1.4c0,0.6,0.2,1.1,0.7,1.5c0.3,0.3,0.7,0.4,1.2,0.4c0.5,0,0.9-0.2,1.3-0.5
		c0.4-0.4,0.5-0.8,0.5-1.3c0-0.5-0.2-1-0.5-1.3C204.4,43.6,203.9,43.4,203.4,43.4L203.4,43.4z M207.8,42.5h1l1.3,3.9l1.3-3.9h1
		l0.9,5.5h-1l-0.6-3.5l-1.2,3.5h-0.9l-1.2-3.5l-0.6,3.5h-1L207.8,42.5L207.8,42.5z M214.2,42.5h4V48h-1.1v-4.6h-1.9V48h-1.1V42.5
		L214.2,42.5z M223.1,48l-1.5-4.1L220,48h-1.1l2.1-5.5h1.1l2.1,5.5H223.1L223.1,48z M224.8,42.5h3v1h-2v1h2v1h-2V47h2v1h-3V42.5
		L224.8,42.5z M228.9,42.5h1.1v1.9l1.5-1.9h1.3l-1.9,2.5l2.1,3.1h-1.3l-1.7-2.5V48h-1.1V42.5L228.9,42.5z M238.7,43.4l-0.7,0.7
		c-0.5-0.5-1.1-0.8-1.7-0.8c-0.5,0-1,0.2-1.3,0.5c-0.4,0.4-0.5,0.8-0.5,1.3c0,0.4,0.1,0.7,0.2,1c0.2,0.3,0.4,0.5,0.7,0.7
		c0.3,0.2,0.6,0.2,1,0.2c0.3,0,0.6-0.1,0.8-0.2c0.3-0.1,0.5-0.3,0.8-0.6l0.7,0.7c-0.4,0.4-0.8,0.7-1.2,0.8c-0.4,0.2-0.8,0.2-1.2,0.2
		c-0.9,0-1.6-0.3-2.1-0.8c-0.5-0.5-0.8-1.2-0.8-2.1c0-0.6,0.1-1,0.4-1.5c0.2-0.4,0.6-0.8,1.1-1c0.5-0.3,1-0.4,1.5-0.4
		c0.5,0,0.9,0.1,1.3,0.3C238.1,42.8,238.4,43.1,238.7,43.4z"/>
	<circle class="st0" cx="25.7" cy="25.7" r="25.7"/>
	<circle class="st2" cx="25.7" cy="25.7" r="24.1"/>
	<rect x="21.2" y="26.1" class="st0" width="3.7" height="2.2"/>
	<path class="st0" d="M23.8,42.4c-2.1,1.5-4.6,2-6.9,1.7c-2.4-0.4-4.6-1.6-6.1-3.7c-1.5-2.1-2-4.6-1.7-6.9c0.4-2.4,1.6-4.6,3.7-6.1
		c2.1-1.5,4.6-2,6.9-1.7c2.4,0.4,4.6,1.6,6.1,3.7c1.5,2.1,2,4.6,1.7,6.9C27.2,38.6,25.9,40.8,23.8,42.4z"/>
	<path class="st0" d="M24.2,26.4c-2.1,1.5-4.6,2-6.9,1.7c-2.4-0.4-4.6-1.6-6.1-3.7c-1.5-2.1-2-4.6-1.7-6.9c0.4-2.4,1.6-4.6,3.7-6.1
		c2.1-1.5,4.6-2,6.9-1.7c2.4,0.4,4.6,1.6,6.1,3.7c1.5,2.1,2,4.6,1.7,6.9C27.6,22.7,26.3,24.9,24.2,26.4z"/>
	<path class="st0" d="M38.5,35c-2.1,1.5-4.6,2-6.9,1.7c-2.4-0.4-4.6-1.6-6.1-3.7c-1.5-2.1-2-4.6-1.7-6.9c0.4-2.4,1.6-4.6,3.7-6.1
		c2.1-1.5,4.6-2,6.9-1.7c2.4,0.4,4.6,1.6,6.1,3.7c1.5,2.1,2,4.6,1.7,6.9C41.9,31.2,40.6,33.4,38.5,35z"/>
	<path class="st1" d="M18.7,11.8c1,0,1.9,0.2,2.8,0.5c0.9,0.4,1.6,0.9,2.2,1.5c0.6,0.6,1.1,1.4,1.5,2.2c0.4,0.9,0.5,1.8,0.5,2.7v6
		c-0.3,0.4-0.7,0.7-1,1l-0.4,0.3l0-0.3V23c-0.6,0.8-1.5,1.5-2.4,2c-1,0.5-2.1,0.8-3.2,0.8c-1,0-1.9-0.2-2.8-0.5
		c-0.9-0.4-1.6-0.9-2.2-1.5c-0.6-0.6-1.1-1.4-1.5-2.2c-0.4-0.8-0.5-1.8-0.5-2.8c0-1,0.2-1.9,0.5-2.7c0.4-0.9,0.9-1.6,1.5-2.2
		c0.6-0.6,1.4-1.1,2.2-1.5C16.8,12,17.7,11.8,18.7,11.8L18.7,11.8z M18.7,24.4c0.8,0,1.5-0.1,2.2-0.4c0.7-0.3,1.3-0.7,1.8-1.2
		c0.5-0.5,0.9-1.1,1.2-1.8c0.3-0.7,0.5-1.4,0.5-2.2c0-0.8-0.2-1.5-0.5-2.2c-0.3-0.7-0.7-1.3-1.2-1.8c-0.5-0.5-1.1-0.9-1.8-1.2
		c-0.7-0.3-1.4-0.4-2.2-0.4s-1.5,0.1-2.2,0.4c-0.7,0.3-1.3,0.7-1.8,1.2c-0.5,0.5-0.9,1.1-1.2,1.8c-0.3,0.7-0.5,1.4-0.5,2.2
		c0,0.8,0.2,1.5,0.5,2.2c0.3,0.7,0.7,1.3,1.2,1.8c0.5,0.5,1.1,0.9,1.8,1.2C17.2,24.3,18,24.4,18.7,24.4z"/>
	<path class="st1" d="M33,21c0.9,0,1.7,0.2,2.5,0.5c0.8,0.3,1.5,0.8,2,1.4c0.6,0.6,1,1.2,1.4,2c0.3,0.8,0.5,1.6,0.5,2.5
		c0,0.9-0.2,1.7-0.5,2.5c-0.3,0.8-0.8,1.4-1.4,2c-0.6,0.6-1.3,1-2,1.4c-0.8,0.3-1.6,0.5-2.5,0.5c-0.9,0-1.7-0.2-2.5-0.5
		c-0.8-0.3-1.5-0.8-2-1.4c-0.6-0.6-1-1.2-1.4-2c-0.3-0.8-0.5-1.6-0.5-2.5v-6.6c0.2-0.2,0.5-0.4,0.8-0.6c0.2-0.1,0.3-0.2,0.5-0.3v3.8
		c0.6-0.8,1.3-1.4,2.2-1.8C31,21.2,32,21,33,21L33,21z M33,32.4c0.7,0,1.4-0.1,2-0.4c0.6-0.3,1.2-0.6,1.6-1.1c0.5-0.5,0.8-1,1.1-1.6
		c0.3-0.6,0.4-1.3,0.4-2s-0.1-1.4-0.4-2c-0.3-0.6-0.6-1.2-1.1-1.6c-0.5-0.5-1-0.8-1.6-1.1c-0.6-0.3-1.3-0.4-2-0.4
		c-0.7,0-1.4,0.1-2,0.4c-0.6,0.3-1.2,0.6-1.6,1.1c-0.5,0.5-0.8,1-1.1,1.6c-0.3,0.6-0.4,1.3-0.4,2s0.1,1.4,0.4,2
		c0.3,0.6,0.6,1.2,1.1,1.6c0.5,0.5,1,0.8,1.6,1.1C31.6,32.3,32.3,32.4,33,32.4z"/>
	<path class="st1" d="M18.4,40.5c0.7,0,1.3-0.1,1.9-0.3c0.6-0.2,1.1-0.5,1.6-0.9c0.5-0.4,0.9-0.8,1.3-1.4c0.4-0.5,0.6-1.1,0.8-1.7
		h1.4c-0.2,0.8-0.5,1.6-0.9,2.3c-0.4,0.7-1,1.3-1.6,1.8c-0.6,0.5-1.3,0.9-2.1,1.2c-0.8,0.3-1.6,0.4-2.5,0.4c-1,0-2-0.2-2.8-0.6
		c-0.9-0.4-1.6-0.9-2.3-1.5c-0.6-0.6-1.2-1.4-1.5-2.3c-0.4-0.9-0.6-1.8-0.6-2.8c0-1,0.2-1.9,0.6-2.8c0.4-0.9,0.9-1.6,1.5-2.3
		c0.6-0.6,1.4-1.1,2.3-1.5c0.9-0.4,1.8-0.6,2.8-0.6c0.9,0,1.7,0.1,2.5,0.4c0.8,0.3,1.5,0.7,2.1,1.2c0.6,0.5,1.1,1.1,1.6,1.8
		c0.4,0.7,0.7,1.5,0.9,2.3h-1.4c-0.2-0.6-0.4-1.2-0.8-1.7c-0.4-0.5-0.8-1-1.3-1.4c-0.5-0.4-1-0.7-1.6-0.9c-0.6-0.2-1.2-0.3-1.9-0.3
		c-0.8,0-1.5,0.2-2.2,0.5c-0.7,0.3-1.3,0.7-1.8,1.2c-0.5,0.5-0.9,1.1-1.2,1.8c-0.3,0.7-0.5,1.4-0.5,2.2c0,0.8,0.2,1.5,0.5,2.2
		c0.3,0.7,0.7,1.3,1.2,1.8s1.1,0.9,1.8,1.2C16.9,40.4,17.7,40.5,18.4,40.5z"/>
	<polygon class="st3" points="34.7,7.3 30,16.7 38.5,9.4 	"/>
</g>
</svg>
